﻿{
  "version": 3,
  "configurePresets": [
    {
      "name": "linux-debug",
      "displayName": "Linux Debug",
      "description": "Hiermit wird das Windows-Subsystem für Linux (WSL) oder ein Linux-Remotesystem als Ziel verwendet.",
      "generator": "Ninja",
      "binaryDir": "${sourceDir}/build/${presetName}",
      "installDir": "${sourceDir}/install/${presetName}",
      "cacheVariables": { "CMAKE_BUILD_TYPE": "Debug" },
      "condition": {
        "type": "equals",
        "lhs": "${hostSystemName}",
        "rhs": "Linux"
      },
      "vendor": { "microsoft.com/VisualStudioRemoteSettings/CMake/1.0": { "sourceDir": "$env{HOME}/.vs/$ms{projectDirName}" } }
    },
    {
      "name": "macos-debug",
      "displayName": "macOS Debug",
      "description": "Richten Sie ein MacOS-Remotesystem als Ziel ein.",
      "generator": "Ninja",
      "binaryDir": "${sourceDir}/build/${presetName}",
      "installDir": "${sourceDir}/install/${presetName}",
      "cacheVariables": { "CMAKE_BUILD_TYPE": "Debug" },
      "condition": {
        "type": "equals",
        "lhs": "${hostSystemName}",
        "rhs": "Darwin"
      },
      "vendor": { "microsoft.com/VisualStudioRemoteSettings/CMake/1.0": { "sourceDir": "$env{HOME}/.vs/$ms{projectDirName}" } }
    },
    {
      "name": "windows-base",
      "description": "Hiermit wird Windows mit der Visual Studio-Entwicklungsumgebung als Ziel verwendet.",
      "hidden": true,
      "generator": "Ninja",
      "binaryDir": "${sourceDir}/build/${presetName}",
      "installDir": "${sourceDir}/install/${presetName}",
      "cacheVariables": {
        "CMAKE_CXX_COMPILER": "cl.exe"
      },
      "condition": {
        "type": "equals",
        "lhs": "${hostSystemName}",
        "rhs": "Windows"
      }
    },
    {
      "name": "x64-debug",
      "displayName": "x64 Debug",
      "description": "Hiermit wird Windows (64 Bit) mit der Visual Studio-Entwicklungsumgebung als Ziel verwendet. (Debug)",
      "inherits": "windows-base",
      "architecture": {
        "value": "x64",
        "strategy": "external"
      },
      "cacheVariables": {
        "CMAKE_BUILD_TYPE": "Debug",
        "ENABLE_COMPILER_OPTIMIZATION": "OFF",
        "ENABLE_COMPILER_OPTIMIZATION_MAX": "OFF",
        "ENABLE_INTERPROCEDURAL_OPTIMIZATION": "OFF",
        "ENABLE_CLANG_FORMAT": "ON",
        "ENABLE_SANITIZER": "ON",
        "ENABLE_COMPILER_WARNINGS": "ON",
        "ENABLE_COMPILER_WARNINGS_AS_ERRORS": "OFF",
        "ENABLE_CLANG_TIDY_DEFAULT_CHECKS": "ON",
        "ENABLE_CATCH2": "ON",
        "ENABLE_DOXYGEN": "ON"
      }
    },
    { 
      "name": "x64-release",
      "displayName": "x64 Release",
      "description": "Hiermit wird Windows (64 Bit) mit der Visual Studio-Entwicklungsumgebung als Ziel verwendet. (RelWithDebInfo)",
      "inherits": "x64-debug",
      "cacheVariables": { "CMAKE_BUILD_TYPE": "Release" }
    },
    {
      "name": "x86-debug",
      "displayName": "x86 Debug",
      "description": "Hiermit wird Windows (32 Bit) mit der Visual Studio-Entwicklungsumgebung als Ziel verwendet. (Debug)",
      "inherits": "windows-base",
      "architecture": {
        "value": "x86",
        "strategy": "external"
      },
      "cacheVariables": { 
        "CMAKE_BUILD_TYPE": "Debug", 
        "ENABLE_COMPILER_OPTIMIZATION": "OFF",
        "ENABLE_COMPILER_OPTIMIZATION_MAX": "OFF",
        "ENABLE_INTERPROCEDURAL_OPTIMIZATION": "OFF",
        "ENABLE_CLANG_FORMAT": "ON",
        "ENABLE_SANITIZER": "ON",
        "ENABLE_COMPILER_WARNINGS": "ON",
        "ENABLE_COMPILER_WARNINGS_AS_ERRORS": "OFF",
        "ENABLE_CLANG_TIDY_DEFAULT_CHECKS": "ON",
        "ENABLE_CATCH2": "ON",
        "ENABLE_DOXYGEN": "ON"}
    },
    {
      "name": "x86-release",
      "displayName": "x86 Release",
      "description": "Hiermit wird Windows (32 Bit) mit der Visual Studio-Entwicklungsumgebung als Ziel verwendet. (RelWithDebInfo)",
      "inherits": "x86-debug",
      "cacheVariables": { "CMAKE_BUILD_TYPE": "Release" }
    }
  ]
}